{
  "project_info": {
    "project_number": "944808040608",
    "project_id": "prakflutterfirebase-9b65b",
    "storage_bucket": "prakflutterfirebase-9b65b.appspot.com"
  },
  "client": [
    {
      "client_info": {
        "mobilesdk_app_id": "1:944808040608:android:e9257a8b4b79b2dfc9d1c5",
        "android_client_info": {
          "package_name": "com.example.praktikum6"
        }
      },
      "oauth_client": [
        {
          "client_id": "944808040608-gp9v4t74th1pgcqqh91vourrtbk2mv3i.apps.googleusercontent.com",
          "client_type": 1,
          "android_info": {
            "package_name": "com.example.praktikum6",
            "certificate_hash": "cd2c3d4e917624d7965a6ff8bdaf690a7c529c67"
          }
        },
        {
          "client_id": "944808040608-ir1tp87g5kes8hsmkn275vf4n0spuhl0.apps.googleusercontent.com",
          "client_type": 3
        }
      ],
      "api_key": [
        {
          "current_key": "AIzaSyAGgjxL1xpS1vdWdQGteMwdEkzGQgGMwVk"
        }
      ],
      "services": {
        "appinvite_service": {
          "other_platform_oauth_client": [
            {
              "client_id": "944808040608-ir1tp87g5kes8hsmkn275vf4n0spuhl0.apps.googleusercontent.com",
              "client_type": 3
            },
            {
              "client_id": "944808040608-9vvnmfr586r295oe7e1h3f9upaq6cqga.apps.googleusercontent.com",
              "client_type": 2,
              "ios_info": {
                "bundle_id": "com.example.praktikum6"
              }
            }
          ]
        }
      }
    }
  ],
  "configuration_version": "1"
}